#This is your standard linear dielectric (polarizable) sphere in a dielectric medium
#This problem is worked out analytically in Jackson or Griffiths and we've shown that
#the analytical solution matches the numerical solution to within high degree of accuracy
#provided the medium mesh is large enough.
#PjFieldAux is just the Claussius-Mosetti relation that arises from the analytical solution
#but is not used to actually solve for \Phi.

[Mesh]
  file = sphere_medium_exodus.e
  #block 2  = sphere
  #block 1  = medium
[]

[Variables]
  [./potential]
    order=FIRST
    family = LAGRANGE
  [../]
[]

#[AuxVariables]
#  [./polar_x]
#    order = CONSTANT
#    family = MONOMIAL
#  [../]
#  [./polar_y]
#    order = CONSTANT
#    family = MONOMIAL
#  [../]
#  [./polar_z]
#    order = CONSTANT
#    family = MONOMIAL
#  [../]
#[]

[Kernels]
  [./E_Ext_block2]
     type=Electrostatics
     permittivity = 6
     variable=potential
     block='2'
  [../]

  [./E_Ext_block1]
     type=Electrostatics
     permittivity = 1
     variable=potential
     block='1'
  [../]
[]

#[AuxKernels]
#  [./polar_x]
#    type = PxFieldAux
#    variable = polar_x
#    block = '2'
#    permittivity_int = 6
#    permittivity_ext = 1 # 8.85e-12
#    potential_ext = potential
#  [../]
#  [./polar_y]
#    type = PyFieldAux
#    variable = polar_y
#    block = '2'
#    permittivity_int = 6
#    permittivity_ext = 1
#    potential_ext = potential
#  [../]
#  [./polar_z]
#    type = PzFieldAux
#    variable = polar_z
#    block = '2'
#    permittivity_int = 6
#    permittivity_ext = 1
#    potential_ext = potential
#  [../]
#[]

[BCs]
  #Please note that in typical textbooks, you apply the field with a Neumann boundary condition
  #but this isn't ideal for the exodiff so we can just as easily apply with a DirichletBC
  #but also note that the field strength depends on the distance between the boundaries!
  [./potential_ext_1]
    type = DirichletBC
    variable = potential
    boundary = '1'
    value = 62.0
  [../]
  [./potential_ext_2]
    type = DirichletBC
    variable = potential
    boundary = '2'
    value = -62.0
  [../]
[]

[Preconditioning]
   [./smp]
     type=SMP
     full=true   #to use every off diagonal block
   [../]
[]

[Executioner]
  type = Steady
  solve_type = NEWTON
[]

[Outputs]
  file_base = out_lindie_sph_test
  print_linear_residuals = true
  print_perf_log = true
  [./out]
    type = Exodus
    elemental_as_nodal = true
  [../]
[]
